SPA check VOG - BAK day 2/32
SPA check VOG - BAK day 3/32
SPA check VOG - BAK day 4/32
SPA check VOG - BAK day 5/32
SPA check VOG - BAK day 6/32
SPA check VOG - BAK day 7/32
SPA check VOG - BAK day 8/32
SPA check VOG - BAK day 9/32
SPA check VOG - BAK day 10/32
SPA check VOG - BAK day 11/32
SPA check VOG - BAK day 12/32
SPA check VOG - BAK day 13/32
SPA check VOG - BAK day 14/32
SPA check VOG - BAK day 15/32
SPA check VOG - BAK day 16/32
SPA check VOG - BAK day 17/32
SPA check VOG - BAK day 18/32
SPA check VOG - BAK day 19/32
SPA check VOG - BAK day 20/32
SPA check VOG - BAK day 21/32
SPA check VOG - BAK day 22/32
SPA check VOG - BAK day 23/32
SPA check VOG - BAK day 24/32
SPA check VOG - BAK day 25/32
SPA check VOG - BAK day 26/32
SPA check VOG - BAK day 27/32
SPA check VOG - BAK day 28/32
SPA check VOG - BAK day 29/32
SPA check VOG - BAK day 30/32
SPA check VOG - BAK day 31/32
SPA check VOG - BAK day 32/32
SPA check VOG - BAK finished
